…
    # load package for formatting tables
    library(knitr)      

    # get data from rcis package
    library(rcis)

    # load data
    data("mass_shootings")
    mass_shootings

    ## # A tibble: 125 × 14
    ##    case       year month   day location summary fatalities injured total_victims
    ##    <chr>     <dbl> <chr> <int> <chr>    <chr>        <dbl>   <dbl>         <dbl>
    ##  1 Oxford H…  2021 Nov      30 Oxford,… "Ethan…          4       7            11
    ##  2 San Jose…  2021 May      26 San Jos… "Samue…          9       0             9
    ##  3 FedEx wa…  2021 Apr      15 Indiana… "Brand…          8       7            15
    ##  4 Orange o…  2021 Mar      31 Orange,… "Amina…          4       1             5
    ##  5 Boulder …  2021 Mar      22 Boulder… "Ahmad…         10       0            10
    ##  6 Atlanta …  2021 Mar      16 Atlanta… "Rober…          8       1             9
    ##  7 Springfi…  2020 Mar      16 Springf… "Joaqu…          4       0             4
    ##  8 Molson C…  2020 Feb      26 Milwauk… "Antho…          5       0             5
    ##  9 Jersey C…  2019 Dec      10 Jersey … "David…          4       3             7
    ## 10 Pensacol…  2019 Dec       6 Pensaco… "Ahmed…          3       8            11
    ## # ℹ 115 more rows
    ## # ℹ 5 more variables: location_type <chr>, male <lgl>, age_of_shooter <dbl>,
    ## #   race <chr>, prior_mental_illness <chr>
…
